examples/block/block.vcd
$date Sun Jun 1 00:00:00 2026 $end
$timescale 1ns $end
$scope module block $end
$var wire 1 ! clk $end
$var wire 1 # a $end
$var wire 1 $ b $end
$var wire 1 % n1 $end
$var wire 1 & n2 $end
$var wire 1 ' q $end
$upscope $end
$enddefinitions $end
$dumpvars
0!
0#
0$
1%
1&
0'
$end
#5
1!
#10
0!
1#
#15
1!
0%
1&
#20
0!
1$
0&
#25
1!
1%
#30
0!
0#
0%
1&
#35
1!
1'
#40
0!
0$
1%
#45
1!
0&
0'
